3c3,6
<     "id": "br-core-structuredefinition-composition-resultadoexamelaboratorial10",
---
>     "id": "br-core-codesystem-composition-resultadoexamelaboratorial11",
>     "meta": {
>         "lastUpdated": "2020-06-09T14:33:17.046+00:00"
>     },
5,6c8,9
<     "url": "http://www.saude.gov.br/fhir/r4/StructureDefinition/BRResultadoExameLaboratorial-1.0",
<     "version": "1.0",
---
>     "url": "http://www.saude.gov.br/fhir/r4/StructureDefinition/BRResultadoExameLaboratorial-1.1",
>     "version": "1.1",
10c13
<     "date": "2020-03-26T13:26:36.5021322Z",
---
>     "date": "2020-06-09T14:33:42.4495242+00:00",
29,38d31
<                 "extension": [
<                     {
<                         "url": "http://hl7.org/fhir/StructureDefinition/structuredefinition-standards-status",
<                         "valueCode": "normative"
<                     },
<                     {
<                         "url": "http://hl7.org/fhir/StructureDefinition/structuredefinition-normative-version",
<                         "valueCode": "4.0.0"
<                     }
<                 ],
44,53d36
<                 "extension": [
<                     {
<                         "url": "http://hl7.org/fhir/StructureDefinition/structuredefinition-standards-status",
<                         "valueCode": "normative"
<                     },
<                     {
<                         "url": "http://hl7.org/fhir/StructureDefinition/structuredefinition-normative-version",
<                         "valueCode": "4.0.0"
<                     }
<                 ],
66c49
<                     "valueSet": "http://www.saude.gov.br/fhir/r4/ValueSet/BREstadoDocumento-1.0"
---
>                     "valueSet": "http://www.saude.gov.br/fhir/r4/ValueSet/BRDocumentoEstado-1.0"
71,80d53
<                 "extension": [
<                     {
<                         "url": "http://hl7.org/fhir/StructureDefinition/structuredefinition-standards-status",
<                         "valueCode": "normative"
<                     },
<                     {
<                         "url": "http://hl7.org/fhir/StructureDefinition/structuredefinition-normative-version",
<                         "valueCode": "4.0.0"
<                     }
<                 ],
99,108d71
<                 "extension": [
<                     {
<                         "url": "http://hl7.org/fhir/StructureDefinition/structuredefinition-standards-status",
<                         "valueCode": "normative"
<                     },
<                     {
<                         "url": "http://hl7.org/fhir/StructureDefinition/structuredefinition-normative-version",
<                         "valueCode": "4.0.0"
<                     }
<                 ],
115,124d77
<                 "extension": [
<                     {
<                         "url": "http://hl7.org/fhir/StructureDefinition/structuredefinition-standards-status",
<                         "valueCode": "normative"
<                     },
<                     {
<                         "url": "http://hl7.org/fhir/StructureDefinition/structuredefinition-normative-version",
<                         "valueCode": "4.0.0"
<                     }
<                 ],
130,139d82
<                 "extension": [
<                     {
<                         "url": "http://hl7.org/fhir/StructureDefinition/structuredefinition-standards-status",
<                         "valueCode": "normative"
<                     },
<                     {
<                         "url": "http://hl7.org/fhir/StructureDefinition/structuredefinition-normative-version",
<                         "valueCode": "4.0.0"
<                     }
<                 ],
147,154d89
<                         "url": "http://hl7.org/fhir/StructureDefinition/structuredefinition-standards-status",
<                         "valueCode": "normative"
<                     },
<                     {
<                         "url": "http://hl7.org/fhir/StructureDefinition/structuredefinition-normative-version",
<                         "valueCode": "4.0.0"
<                     },
<                     {
164,173d98
<                 "extension": [
<                     {
<                         "url": "http://hl7.org/fhir/StructureDefinition/structuredefinition-standards-status",
<                         "valueCode": "normative"
<                     },
<                     {
<                         "url": "http://hl7.org/fhir/StructureDefinition/structuredefinition-normative-version",
<                         "valueCode": "4.0.0"
<                     }
<                 ],
181,188d105
<                         "url": "http://hl7.org/fhir/StructureDefinition/structuredefinition-standards-status",
<                         "valueCode": "normative"
<                     },
<                     {
<                         "url": "http://hl7.org/fhir/StructureDefinition/structuredefinition-normative-version",
<                         "valueCode": "4.0.0"
<                     },
<                     {
198,207d114
<                 "extension": [
<                     {
<                         "url": "http://hl7.org/fhir/StructureDefinition/structuredefinition-standards-status",
<                         "valueCode": "normative"
<                     },
<                     {
<                         "url": "http://hl7.org/fhir/StructureDefinition/structuredefinition-normative-version",
<                         "valueCode": "4.0.0"
<                     }
<                 ],
213,222d119
<                 "extension": [
<                     {
<                         "url": "http://hl7.org/fhir/StructureDefinition/structuredefinition-standards-status",
<                         "valueCode": "normative"
<                     },
<                     {
<                         "url": "http://hl7.org/fhir/StructureDefinition/structuredefinition-normative-version",
<                         "valueCode": "4.0.0"
<                     }
<                 ],
239,248d135
<                 "extension": [
<                     {
<                         "url": "http://hl7.org/fhir/StructureDefinition/structuredefinition-standards-status",
<                         "valueCode": "normative"
<                     },
<                     {
<                         "url": "http://hl7.org/fhir/StructureDefinition/structuredefinition-normative-version",
<                         "valueCode": "4.0.0"
<                     }
<                 ],
254,263d140
<                 "extension": [
<                     {
<                         "url": "http://hl7.org/fhir/StructureDefinition/structuredefinition-standards-status",
<                         "valueCode": "normative"
<                     },
<                     {
<                         "url": "http://hl7.org/fhir/StructureDefinition/structuredefinition-normative-version",
<                         "valueCode": "4.0.0"
<                     }
<                 ],
269,278d145
<                 "extension": [
<                     {
<                         "url": "http://hl7.org/fhir/StructureDefinition/structuredefinition-standards-status",
<                         "valueCode": "normative"
<                     },
<                     {
<                         "url": "http://hl7.org/fhir/StructureDefinition/structuredefinition-normative-version",
<                         "valueCode": "4.0.0"
<                     }
<                 ],
283,287d149
<                 "id": "Composition.subject.identifier.id",
<                 "path": "Composition.subject.identifier.id",
<                 "max": "0"
<             },
<             {
289,298d150
<                 "extension": [
<                     {
<                         "url": "http://hl7.org/fhir/StructureDefinition/structuredefinition-standards-status",
<                         "valueCode": "normative"
<                     },
<                     {
<                         "url": "http://hl7.org/fhir/StructureDefinition/structuredefinition-normative-version",
<                         "valueCode": "4.0.0"
<                     }
<                 ],
304,313d155
<                 "extension": [
<                     {
<                         "url": "http://hl7.org/fhir/StructureDefinition/structuredefinition-standards-status",
<                         "valueCode": "normative"
<                     },
<                     {
<                         "url": "http://hl7.org/fhir/StructureDefinition/structuredefinition-normative-version",
<                         "valueCode": "4.0.0"
<                     }
<                 ],
319,328d160
<                 "extension": [
<                     {
<                         "url": "http://hl7.org/fhir/StructureDefinition/structuredefinition-standards-status",
<                         "valueCode": "normative"
<                     },
<                     {
<                         "url": "http://hl7.org/fhir/StructureDefinition/structuredefinition-normative-version",
<                         "valueCode": "4.0.0"
<                     }
<                 ],
335,344d166
<                 "extension": [
<                     {
<                         "url": "http://hl7.org/fhir/StructureDefinition/structuredefinition-standards-status",
<                         "valueCode": "normative"
<                     },
<                     {
<                         "url": "http://hl7.org/fhir/StructureDefinition/structuredefinition-normative-version",
<                         "valueCode": "4.0.0"
<                     }
<                 ],
350,359d171
<                 "extension": [
<                     {
<                         "url": "http://hl7.org/fhir/StructureDefinition/structuredefinition-standards-status",
<                         "valueCode": "normative"
<                     },
<                     {
<                         "url": "http://hl7.org/fhir/StructureDefinition/structuredefinition-normative-version",
<                         "valueCode": "4.0.0"
<                     }
<                 ],
365,374d176
<                 "extension": [
<                     {
<                         "url": "http://hl7.org/fhir/StructureDefinition/structuredefinition-standards-status",
<                         "valueCode": "normative"
<                     },
<                     {
<                         "url": "http://hl7.org/fhir/StructureDefinition/structuredefinition-normative-version",
<                         "valueCode": "4.0.0"
<                     }
<                 ],
382,389d183
<                         "url": "http://hl7.org/fhir/StructureDefinition/structuredefinition-standards-status",
<                         "valueCode": "normative"
<                     },
<                     {
<                         "url": "http://hl7.org/fhir/StructureDefinition/structuredefinition-normative-version",
<                         "valueCode": "4.0.0"
<                     },
<                     {
399,408d192
<                 "extension": [
<                     {
<                         "url": "http://hl7.org/fhir/StructureDefinition/structuredefinition-standards-status",
<                         "valueCode": "normative"
<                     },
<                     {
<                         "url": "http://hl7.org/fhir/StructureDefinition/structuredefinition-normative-version",
<                         "valueCode": "4.0.0"
<                     }
<                 ],
414,423d197
<                 "extension": [
<                     {
<                         "url": "http://hl7.org/fhir/StructureDefinition/structuredefinition-standards-status",
<                         "valueCode": "normative"
<                     },
<                     {
<                         "url": "http://hl7.org/fhir/StructureDefinition/structuredefinition-normative-version",
<                         "valueCode": "4.0.0"
<                     }
<                 ],
431,440d204
<                 "extension": [
<                     {
<                         "url": "http://hl7.org/fhir/StructureDefinition/structuredefinition-standards-status",
<                         "valueCode": "normative"
<                     },
<                     {
<                         "url": "http://hl7.org/fhir/StructureDefinition/structuredefinition-normative-version",
<                         "valueCode": "4.0.0"
<                     }
<                 ],
458,467d221
<                 "extension": [
<                     {
<                         "url": "http://hl7.org/fhir/StructureDefinition/structuredefinition-standards-status",
<                         "valueCode": "normative"
<                     },
<                     {
<                         "url": "http://hl7.org/fhir/StructureDefinition/structuredefinition-normative-version",
<                         "valueCode": "4.0.0"
<                     }
<                 ],
473,482d226
<                 "extension": [
<                     {
<                         "url": "http://hl7.org/fhir/StructureDefinition/structuredefinition-standards-status",
<                         "valueCode": "normative"
<                     },
<                     {
<                         "url": "http://hl7.org/fhir/StructureDefinition/structuredefinition-normative-version",
<                         "valueCode": "4.0.0"
<                     }
<                 ],
488,497d231
<                 "extension": [
<                     {
<                         "url": "http://hl7.org/fhir/StructureDefinition/structuredefinition-standards-status",
<                         "valueCode": "normative"
<                     },
<                     {
<                         "url": "http://hl7.org/fhir/StructureDefinition/structuredefinition-normative-version",
<                         "valueCode": "4.0.0"
<                     }
<                 ],
503,512d236
<                 "extension": [
<                     {
<                         "url": "http://hl7.org/fhir/StructureDefinition/structuredefinition-standards-status",
<                         "valueCode": "normative"
<                     },
<                     {
<                         "url": "http://hl7.org/fhir/StructureDefinition/structuredefinition-normative-version",
<                         "valueCode": "4.0.0"
<                     }
<                 ],
518,527d241
<                 "extension": [
<                     {
<                         "url": "http://hl7.org/fhir/StructureDefinition/structuredefinition-standards-status",
<                         "valueCode": "normative"
<                     },
<                     {
<                         "url": "http://hl7.org/fhir/StructureDefinition/structuredefinition-normative-version",
<                         "valueCode": "4.0.0"
<                     }
<                 ],
533,542d246
<                 "extension": [
<                     {
<                         "url": "http://hl7.org/fhir/StructureDefinition/structuredefinition-standards-status",
<                         "valueCode": "normative"
<                     },
<                     {
<                         "url": "http://hl7.org/fhir/StructureDefinition/structuredefinition-normative-version",
<                         "valueCode": "4.0.0"
<                     }
<                 ],
549,558d252
<                 "extension": [
<                     {
<                         "url": "http://hl7.org/fhir/StructureDefinition/structuredefinition-standards-status",
<                         "valueCode": "normative"
<                     },
<                     {
<                         "url": "http://hl7.org/fhir/StructureDefinition/structuredefinition-normative-version",
<                         "valueCode": "4.0.0"
<                     }
<                 ],
564,573d257
<                 "extension": [
<                     {
<                         "url": "http://hl7.org/fhir/StructureDefinition/structuredefinition-standards-status",
<                         "valueCode": "normative"
<                     },
<                     {
<                         "url": "http://hl7.org/fhir/StructureDefinition/structuredefinition-normative-version",
<                         "valueCode": "4.0.0"
<                     }
<                 ],
579,588d262
<                 "extension": [
<                     {
<                         "url": "http://hl7.org/fhir/StructureDefinition/structuredefinition-standards-status",
<                         "valueCode": "normative"
<                     },
<                     {
<                         "url": "http://hl7.org/fhir/StructureDefinition/structuredefinition-normative-version",
<                         "valueCode": "4.0.0"
<                     }
<                 ],
596,603d269
<                         "url": "http://hl7.org/fhir/StructureDefinition/structuredefinition-standards-status",
<                         "valueCode": "normative"
<                     },
<                     {
<                         "url": "http://hl7.org/fhir/StructureDefinition/structuredefinition-normative-version",
<                         "valueCode": "4.0.0"
<                     },
<                     {
613,622d278
<                 "extension": [
<                     {
<                         "url": "http://hl7.org/fhir/StructureDefinition/structuredefinition-standards-status",
<                         "valueCode": "normative"
<                     },
<                     {
<                         "url": "http://hl7.org/fhir/StructureDefinition/structuredefinition-normative-version",
<                         "valueCode": "4.0.0"
<                     }
<                 ],
631,640d286
<                 "extension": [
<                     {
<                         "url": "http://hl7.org/fhir/StructureDefinition/structuredefinition-standards-status",
<                         "valueCode": "normative"
<                     },
<                     {
<                         "url": "http://hl7.org/fhir/StructureDefinition/structuredefinition-normative-version",
<                         "valueCode": "4.0.0"
<                     }
<                 ],
646,655d291
<                 "extension": [
<                     {
<                         "url": "http://hl7.org/fhir/StructureDefinition/structuredefinition-standards-status",
<                         "valueCode": "normative"
<                     },
<                     {
<                         "url": "http://hl7.org/fhir/StructureDefinition/structuredefinition-normative-version",
<                         "valueCode": "4.0.0"
<                     }
<                 ],
661,670d296
<                 "extension": [
<                     {
<                         "url": "http://hl7.org/fhir/StructureDefinition/structuredefinition-standards-status",
<                         "valueCode": "normative"
<                     },
<                     {
<                         "url": "http://hl7.org/fhir/StructureDefinition/structuredefinition-normative-version",
<                         "valueCode": "4.0.0"
<                     }
<                 ],
676,680c302,322
<                 "extension": [
<                     {
<                         "url": "http://hl7.org/fhir/StructureDefinition/structuredefinition-standards-status",
<                         "valueCode": "normative"
<                     },
---
>                 "path": "Composition.relatesTo",
>                 "short": "Relação a Outros Documentos",
>                 "definition": "Indica uma relação entre esse documento e outro documento (ou composição) existente.",
>                 "requirements": "Este elemento deve ser utilizado exclusivamente para indicar que este documento substitui (replaces) outro documento / composição; ou seja, é utilizado para cancelar o anterior e passar a considerar este no seu lugar. Este documento receberá um ID próprio; o documento anterior continuará disponível na RNDS e poderá ser recuperado integralmente por referência direta ao seu ID, garantindo a rastreabilidade do processo, mas não estará diretamente disponível na timeline do cidadão.",
>                 "max": "1"
>             },
>             {
>                 "id": "Composition.relatesTo.code",
>                 "path": "Composition.relatesTo.code",
>                 "short": "Tipo de Relacionamento",
>                 "definition": "Indica o tipo de relacionamento que este documento tem com o outro documento (composição).",
>                 "requirements": "O valor é fixado em replaces, pois a substituição de documentos é a única operação permitida na RNDS.",
>                 "fixedCode": "replaces"
>             },
>             {
>                 "id": "Composition.relatesTo.target[x]",
>                 "path": "Composition.relatesTo.target[x]",
>                 "short": "Documento a Ser Substituído",
>                 "definition": "Referência ao documento anterior que este documento está substituindo.",
>                 "requirements": "O valor é fixado em replaces, pois a substituição de documentos é a única operação permitida na RNDS.",
>                 "type": [
682,683c324
<                         "url": "http://hl7.org/fhir/StructureDefinition/structuredefinition-normative-version",
<                         "valueCode": "4.0.0"
---
>                         "code": "Reference"
685,686c326,330
<                 ],
<                 "path": "Composition.relatesTo",
---
>                 ]
>             },
>             {
>                 "id": "Composition.relatesTo.target[x].id",
>                 "path": "Composition.relatesTo.target[x].id",
690c334,349
<                 "id": "Composition.event",
---
>                 "id": "Composition.relatesTo.target[x].reference",
>                 "path": "Composition.relatesTo.target[x].reference",
>                 "min": 1
>             },
>             {
>                 "id": "Composition.relatesTo.target[x].type",
>                 "path": "Composition.relatesTo.target[x].type",
>                 "max": "0"
>             },
>             {
>                 "id": "Composition.relatesTo.target[x].identifier",
>                 "path": "Composition.relatesTo.target[x].identifier",
>                 "max": "0"
>             },
>             {
>                 "id": "Composition.relatesTo.target[x].display",
693,698c352,353
<                         "url": "http://hl7.org/fhir/StructureDefinition/structuredefinition-standards-status",
<                         "valueCode": "normative"
<                     },
<                     {
<                         "url": "http://hl7.org/fhir/StructureDefinition/structuredefinition-normative-version",
<                         "valueCode": "4.0.0"
---
>                         "url": "http://hl7.org/fhir/StructureDefinition/elementdefinition-translatable",
>                         "valueBoolean": true
700a356,360
>                 "path": "Composition.relatesTo.target[x].display",
>                 "max": "0"
>             },
>             {
>                 "id": "Composition.event",
708,715d367
<                         "url": "http://hl7.org/fhir/StructureDefinition/structuredefinition-standards-status",
<                         "valueCode": "normative"
<                     },
<                     {
<                         "url": "http://hl7.org/fhir/StructureDefinition/structuredefinition-normative-version",
<                         "valueCode": "4.0.0"
<                     },
<                     {
729,738d380
<                 "extension": [
<                     {
<                         "url": "http://hl7.org/fhir/StructureDefinition/structuredefinition-standards-status",
<                         "valueCode": "normative"
<                     },
<                     {
<                         "url": "http://hl7.org/fhir/StructureDefinition/structuredefinition-normative-version",
<                         "valueCode": "4.0.0"
<                     }
<                 ],
744,753d385
<                 "extension": [
<                     {
<                         "url": "http://hl7.org/fhir/StructureDefinition/structuredefinition-standards-status",
<                         "valueCode": "normative"
<                     },
<                     {
<                         "url": "http://hl7.org/fhir/StructureDefinition/structuredefinition-normative-version",
<                         "valueCode": "4.0.0"
<                     }
<                 ],
759,768d390
<                 "extension": [
<                     {
<                         "url": "http://hl7.org/fhir/StructureDefinition/structuredefinition-standards-status",
<                         "valueCode": "normative"
<                     },
<                     {
<                         "url": "http://hl7.org/fhir/StructureDefinition/structuredefinition-normative-version",
<                         "valueCode": "4.0.0"
<                     }
<                 ],
774,783d395
<                 "extension": [
<                     {
<                         "url": "http://hl7.org/fhir/StructureDefinition/structuredefinition-standards-status",
<                         "valueCode": "normative"
<                     },
<                     {
<                         "url": "http://hl7.org/fhir/StructureDefinition/structuredefinition-normative-version",
<                         "valueCode": "4.0.0"
<                     }
<                 ],
789,798d400
<                 "extension": [
<                     {
<                         "url": "http://hl7.org/fhir/StructureDefinition/structuredefinition-standards-status",
<                         "valueCode": "normative"
<                     },
<                     {
<                         "url": "http://hl7.org/fhir/StructureDefinition/structuredefinition-normative-version",
<                         "valueCode": "4.0.0"
<                     }
<                 ],
804,813d405
<                 "extension": [
<                     {
<                         "url": "http://hl7.org/fhir/StructureDefinition/structuredefinition-standards-status",
<                         "valueCode": "normative"
<                     },
<                     {
<                         "url": "http://hl7.org/fhir/StructureDefinition/structuredefinition-normative-version",
<                         "valueCode": "4.0.0"
<                     }
<                 ],
819,828d410
<                 "extension": [
<                     {
<                         "url": "http://hl7.org/fhir/StructureDefinition/structuredefinition-standards-status",
<                         "valueCode": "normative"
<                     },
<                     {
<                         "url": "http://hl7.org/fhir/StructureDefinition/structuredefinition-normative-version",
<                         "valueCode": "4.0.0"
<                     }
<                 ],
834,843d415
<                 "extension": [
<                     {
<                         "url": "http://hl7.org/fhir/StructureDefinition/structuredefinition-standards-status",
<                         "valueCode": "normative"
<                     },
<                     {
<                         "url": "http://hl7.org/fhir/StructureDefinition/structuredefinition-normative-version",
<                         "valueCode": "4.0.0"
<                     }
<                 ],
858,867d429
<                 "extension": [
<                     {
<                         "url": "http://hl7.org/fhir/StructureDefinition/structuredefinition-standards-status",
<                         "valueCode": "normative"
<                     },
<                     {
<                         "url": "http://hl7.org/fhir/StructureDefinition/structuredefinition-normative-version",
<                         "valueCode": "4.0.0"
<                     }
<                 ],
873,882d434
<                 "extension": [
<                     {
<                         "url": "http://hl7.org/fhir/StructureDefinition/structuredefinition-standards-status",
<                         "valueCode": "normative"
<                     },
<                     {
<                         "url": "http://hl7.org/fhir/StructureDefinition/structuredefinition-normative-version",
<                         "valueCode": "4.0.0"
<                     }
<                 ],
888,897d439
<                 "extension": [
<                     {
<                         "url": "http://hl7.org/fhir/StructureDefinition/structuredefinition-standards-status",
<                         "valueCode": "normative"
<                     },
<                     {
<                         "url": "http://hl7.org/fhir/StructureDefinition/structuredefinition-normative-version",
<                         "valueCode": "4.0.0"
<                     }
<                 ],
905,912d446
<                         "url": "http://hl7.org/fhir/StructureDefinition/structuredefinition-standards-status",
<                         "valueCode": "normative"
<                     },
<                     {
<                         "url": "http://hl7.org/fhir/StructureDefinition/structuredefinition-normative-version",
<                         "valueCode": "4.0.0"
<                     },
<                     {
922,931d455
<                 "extension": [
<                     {
<                         "url": "http://hl7.org/fhir/StructureDefinition/structuredefinition-standards-status",
<                         "valueCode": "normative"
<                     },
<                     {
<                         "url": "http://hl7.org/fhir/StructureDefinition/structuredefinition-normative-version",
<                         "valueCode": "4.0.0"
<                     }
<                 ],
942,951d465
<                 "extension": [
<                     {
<                         "url": "http://hl7.org/fhir/StructureDefinition/structuredefinition-standards-status",
<                         "valueCode": "normative"
<                     },
<                     {
<                         "url": "http://hl7.org/fhir/StructureDefinition/structuredefinition-normative-version",
<                         "valueCode": "4.0.0"
<                     }
<                 ],
957,966d470
<                 "extension": [
<                     {
<                         "url": "http://hl7.org/fhir/StructureDefinition/structuredefinition-standards-status",
<                         "valueCode": "normative"
<                     },
<                     {
<                         "url": "http://hl7.org/fhir/StructureDefinition/structuredefinition-normative-version",
<                         "valueCode": "4.0.0"
<                     }
<                 ],
972,981d475
<                 "extension": [
<                     {
<                         "url": "http://hl7.org/fhir/StructureDefinition/structuredefinition-standards-status",
<                         "valueCode": "normative"
<                     },
<                     {
<                         "url": "http://hl7.org/fhir/StructureDefinition/structuredefinition-normative-version",
<                         "valueCode": "4.0.0"
<                     }
<                 ],
987,996d480
<                 "extension": [
<                     {
<                         "url": "http://hl7.org/fhir/StructureDefinition/structuredefinition-standards-status",
<                         "valueCode": "normative"
<                     },
<                     {
<                         "url": "http://hl7.org/fhir/StructureDefinition/structuredefinition-normative-version",
<                         "valueCode": "4.0.0"
<                     }
<                 ],
1002,1011d485
<                 "extension": [
<                     {
<                         "url": "http://hl7.org/fhir/StructureDefinition/structuredefinition-standards-status",
<                         "valueCode": "normative"
<                     },
<                     {
<                         "url": "http://hl7.org/fhir/StructureDefinition/structuredefinition-normative-version",
<                         "valueCode": "4.0.0"
<                     }
<                 ],
1017,1026d490
<                 "extension": [
<                     {
<                         "url": "http://hl7.org/fhir/StructureDefinition/structuredefinition-standards-status",
<                         "valueCode": "normative"
<                     },
<                     {
<                         "url": "http://hl7.org/fhir/StructureDefinition/structuredefinition-normative-version",
<                         "valueCode": "4.0.0"
<                     }
<                 ],
1032,1041d495
<                 "extension": [
<                     {
<                         "url": "http://hl7.org/fhir/StructureDefinition/structuredefinition-standards-status",
<                         "valueCode": "normative"
<                     },
<                     {
<                         "url": "http://hl7.org/fhir/StructureDefinition/structuredefinition-normative-version",
<                         "valueCode": "4.0.0"
<                     }
<                 ],
1047,1056d500
<                 "extension": [
<                     {
<                         "url": "http://hl7.org/fhir/StructureDefinition/structuredefinition-standards-status",
<                         "valueCode": "normative"
<                     },
<                     {
<                         "url": "http://hl7.org/fhir/StructureDefinition/structuredefinition-normative-version",
<                         "valueCode": "4.0.0"
<                     }
<                 ],
1062c506
< }
---
> }
\ No newline at end of file
