{
    "resourceType": "ValueSet",
    "id": "br-core-valueset-encounter-hospitalization-admitsource",
    "meta": {
        "lastUpdated": "2020-03-12T13:23:45.969+00:00"
    },
    "language": "pt-BR",
    "url": "http://www.saude.gov.br/fhir/r4/ValueSet/BRProcedencia-1.0",
    "version": "1.0",
    "name": "Procedência_do_Contato_Assistencial",
    "status": "active",
    "experimental": false,
    "date": "2020-03-12T13:23:45.1685886+00:00",
    "publisher": "Ministério da Saúde do Brasil",
    "description": "Classifica o serviço que encaminhou o indivíduo ou a sua iniciativa/de seu responsável na busca pelo acesso ao serviço de saúde.",
    "immutable": false,
    "compose": {
        "include": [
            {
                "system": "http://www.saude.gov.br/fhir/r4/CodeSystem/BRProcedencia",
                "version": "*"
            }
        ]
    }
}
